unidad_5.knit
…
pivot_longer(c(`variable_1`, `variable_2`, ... , `variable_n`), # variables a combinar
       names_to = "Variables", # el titulo de la nueva columna con las variables
       values_to = "Valor") # el título de la nueva columna con el valor numérico

Notar que el nombre de las variables se debe introducir entre tildes
invertidas (`). En nuestro caso de ejemplo será:

soja %>% pivot_longer(c(`Sup`, `Yield`, `Production`),
       names_to =  "Variables",
       values_to = "Valor")

## # A tibble: 378 × 5
##    Area      Element         Year Variables  Valor
##    <chr>     <chr>          <dbl> <chr>      <dbl>
##  1 Argentina Area harvested  1961 Sup          980
##  2 Argentina Area harvested  1961 Yield        977
##  3 Argentina Area harvested  1961 Production   957
##  4 Argentina Area harvested  1962 Sup         9649
##  5 Argentina Area harvested  1962 Yield       1163
##  6 Argentina Area harvested  1962 Production 11220
##  7 Argentina Area harvested  1963 Sup        19302
##  8 Argentina Area harvested  1963 Yield        980
##  9 Argentina Area harvested  1963 Production 18920
## 10 Argentina Area harvested  1964 Sup        12220
## # ℹ 368 more rows
…
